{
    "KPlugin": {
        "Icon": "view-history",
        "Name": "History SideBar Module",
        "Name[ca@valencia]": "Mòdul de barra lateral d'historial",
        "Name[ca]": "Mòdul de barra lateral d'historial",
        "Name[cs]": "Modul postranního panelu historie",
        "Name[eo]": "Historio SideBar Modulo",
        "Name[es]": "Módulo de la barra lateral del historial",
        "Name[eu]": "Historiaren alboko barraren modulua",
        "Name[fi]": "Historian sivupaneelimoduuli",
        "Name[fr]": "Module d'historique de la barre latérale",
        "Name[gl]": "Módulo da barra lateral co historial",
        "Name[he]": "מודול סרגל צד היסטוריה",
        "Name[ia]": "Modulo de barra lateral de historia",
        "Name[it]": "Modulo della barra laterale della cronologia",
        "Name[ka]": "ისტორიის გვერდით პანელის მოდული",
        "Name[ko]": "과거 기록 사이드바 모듈",
        "Name[lv]": "Vēstures sānu joslas modulis",
        "Name[nl]": "Module voor zijbalk met geschiedenis",
        "Name[pl]": "Moduł paska bocznego z historią",
        "Name[ru]": "Модуль боковой панели журнала",
        "Name[sk]": "Modul bočného panelu histórie",
        "Name[sl]": "Modul stranske vrstice zgodovine",
        "Name[sv]": "Sidomodul med historik",
        "Name[tr]": "Geçmiş Kenar Çubuğu Modülü",
        "Name[uk]": "Модуль бічної панелі журналу",
        "Name[x-test]": "xxHistory SideBar Modulexx",
        "Name[zh_CN]": "历史侧边栏模块",
        "Name[zh_TW]": "歷史側邊欄模組"
    }
}
