{
    "KPlugin": {
        "Authors": [
            {
                "Email": "rich@kde.org",
                "Name": "Richard J. Moore",
                "Name[ca@valencia]": "Richard J. Moore",
                "Name[ca]": "Richard J. Moore",
                "Name[eo]": "Richard J. Moore",
                "Name[es]": "Richard J. Moore",
                "Name[eu]": "Richard J. Moore",
                "Name[fi]": "Richard J. Moore",
                "Name[fr]": "Richard J. Moore",
                "Name[gl]": "Richard J. Moore",
                "Name[he]": "ריצ׳ארד ג׳. מור",
                "Name[ia]": "Richard J. Moore",
                "Name[it]": "Richard J. Moore",
                "Name[ka]": "Richard J. Moore",
                "Name[ko]": "Richard J. Moore",
                "Name[lv]": "Richard J. Moore",
                "Name[nl]": "Richard J. Moore",
                "Name[pl]": "Richard J. Moore",
                "Name[pt_BR]": "Richard J. Moore",
                "Name[ru]": "Richard J. Moore",
                "Name[sk]": "Richard J. Moore",
                "Name[sl]": "Richard J. Moore",
                "Name[sv]": "Richard J. Moore",
                "Name[tr]": "Richard J. Moore",
                "Name[uk]": "Richard J. Moore",
                "Name[x-test]": "xxRichard J. Moorexx",
                "Name[zh_CN]": "Richard J. Moore",
                "Name[zh_TW]": "Richard J. Moore"
            }
        ],
        "Category": "Tools",
        "Description": "Auto Refresh plugin",
        "Description[ca@valencia]": "Connector d'actualització automàtica",
        "Description[ca]": "Connector d'actualització automàtica",
        "Description[cs]": "Automaticky obnovit modul",
        "Description[eo]": "Aŭtomata Refreŝiga kromaĵo",
        "Description[es]": "Complemento de actualización automática",
        "Description[eu]": "Automatikoki berritzeko plugina",
        "Description[fi]": "Automaattivirkistysliitännäinen",
        "Description[fr]": "Module externe de rafraîchissement automatique",
        "Description[gl]": "Complemento de actualización automática.",
        "Description[he]": "תוסף רענן אוטומטי",
        "Description[ia]": "Plug-in de refrescamento automatic",
        "Description[it]": "Estensione di aggiornamento automatico",
        "Description[ka]": "ავტომატური განახლების დამატება",
        "Description[ko]": "자동 새로 고침 플러그인",
        "Description[lv]": "Automātiskas pārlādēšanas spraudnis",
        "Description[nl]": "Autoverversplugin",
        "Description[pl]": "Wtyczka auto-odświeżenia",
        "Description[pt_BR]": "Plugin de atualização automática",
        "Description[ru]": "Модуль автообновления",
        "Description[sk]": "Samočinne obnoviť modul",
        "Description[sl]": "Samodejno osveži vtičnik",
        "Description[sv]": "Insticksprogram för automatisk uppdatering",
        "Description[tr]": "Otomatik Yenile eklentisi",
        "Description[uk]": "Додаток автоматичного оновлення",
        "Description[x-test]": "xxAuto Refresh pluginxx",
        "Description[zh_CN]": "自动刷新插件",
        "Description[zh_TW]": "自動重新整理外掛程式",
        "EnabledByDefault": false,
        "Icon": "view-refresh",
        "License": "GPL",
        "Name": "Auto Refresh",
        "Name[ca@valencia]": "Actualització automàtica",
        "Name[ca]": "Actualització automàtica",
        "Name[cs]": "Automaticky obnovit",
        "Name[de]": "Automatische Aktualisierung",
        "Name[eo]": "Aŭtomata Refreŝigo",
        "Name[es]": "Actualizar automáticamente",
        "Name[eu]": "Berritu automatikoki",
        "Name[fi]": "Automaattinen päivitys",
        "Name[fr]": "Rafraîchir automatiquement",
        "Name[gl]": "Refrescar automaticamente",
        "Name[he]": "רענון אוטומטי",
        "Name[ia]": "Refrescamento automatic",
        "Name[id]": "Auto Segar",
        "Name[it]": "Aggiornamento automatico",
        "Name[ja]": "自動更新",
        "Name[ka]": "ავტომატური განახლება",
        "Name[ko]": "자동 새로 고침",
        "Name[lv]": "Automātiski pārlādēt",
        "Name[nb]": "Automatisk oppfriskning",
        "Name[nl]": "Automatisch vernieuwen",
        "Name[nn]": "Automatisk oppdatering",
        "Name[pl]": "Samoodświeżanie",
        "Name[pt_BR]": "Atualizar automaticamente",
        "Name[ru]": "Автообновление",
        "Name[sk]": "&Automatická obnova",
        "Name[sl]": "Samodejno osveži",
        "Name[sv]": "Automatisk uppdatering",
        "Name[tr]": "Otomatik Yenile",
        "Name[uk]": "Автоматичне оновлення",
        "Name[x-test]": "xxAuto Refreshxx",
        "Name[zh_CN]": "自动刷新",
        "Name[zh_TW]": "自動重新整理",
        "Version": "3.3",
        "Website": ""
    },
    "X-KDE-ParentApp": "konqueror"
}
