{
    "Categories": "Qt;KDE;X-KDE-settings-webbrowsing;",
    "KPlugin": {
        "Description": "Configure the browser behavior",
        "Description[ca@valencia]": "Configura el comportament del navegador",
        "Description[ca]": "Configura el comportament del navegador",
        "Description[cs]": "Nastavení chování prohlížeče",
        "Description[eo]": "Agordi la retumilan konduton",
        "Description[es]": "Configurar el comportamiento del navegador",
        "Description[eu]": "Konfiguratu arakatzailearen jokabidea",
        "Description[fi]": "Selaimen toiminta-asetukset",
        "Description[fr]": "Configurer le comportement du navigateur",
        "Description[gl]": "Configura o comportamento do navegador.",
        "Description[he]": "הגדרת התנהגות הדפדפן",
        "Description[ia]": "Configura le comportamento de web",
        "Description[it]": "Configura il comportamento del browser",
        "Description[ka]": "ბრაუზერის ქცევის მორგება",
        "Description[ko]": "브라우저 행동 설정",
        "Description[lv]": "Konfigurēt pārlūka uzvedību",
        "Description[nl]": "Hier kunt u het gedrag van de webbrowser instellen",
        "Description[pl]": "Ustawienia zachowania przeglądarki",
        "Description[pt_BR]": "Configura o comportamento do navegador",
        "Description[ru]": "Настройка просмотра веб-страниц",
        "Description[sk]": "Nastavenie správania prehliadača",
        "Description[sl]": "Konfigurirajte obnašanje brskalnika",
        "Description[sv]": "Anpassa webbläsarens beteende",
        "Description[tr]": "Tarayıcı davranışını yapılandırın",
        "Description[uk]": "Налаштування поведінки навігатора",
        "Description[x-test]": "xxConfigure the browser behaviorxx",
        "Description[zh_CN]": "配置浏览器的行为",
        "Description[zh_TW]": "設定瀏覽器行為",
        "Icon": "konqueror",
        "Name": "Web Behavior",
        "Name[ca@valencia]": "Comportament web",
        "Name[ca]": "Comportament web",
        "Name[cs]": "Chování na webu",
        "Name[de]": "Webverhalten",
        "Name[eo]": "Reteja Konduto",
        "Name[es]": "Comportamiento web",
        "Name[eu]": "Web-jokabidea",
        "Name[fi]": "Verkon toiminta",
        "Name[fr]": "Comportement Web",
        "Name[gl]": "Comportamento Web",
        "Name[he]": "התנהגות אתרים",
        "Name[ia]": "Comportamento de Web",
        "Name[id]": "Perilaku Web",
        "Name[it]": "Comportamento Web",
        "Name[ja]": "ウェブでの挙動",
        "Name[ka]": "ვების ქცევა",
        "Name[ko]": "웹 행동",
        "Name[lv]": "Tīmekļa uzvedība",
        "Name[nb]": "Nettoppførsel",
        "Name[nl]": "Webgedrag",
        "Name[nn]": "Vevåtferd",
        "Name[pl]": "Przeglądanie WWW",
        "Name[pt_BR]": "Comportamento da Web",
        "Name[ru]": "Просмотр",
        "Name[sk]": "Správanie WWW",
        "Name[sl]": "Obnašanje spleta",
        "Name[sv]": "Nätbeteende",
        "Name[tr]": "Web Davranışı",
        "Name[uk]": "Поведінка навігатора інтернету",
        "Name[x-test]": "xxWeb Behaviorxx",
        "Name[zh_CN]": "网页行为",
        "Name[zh_TW]": "網路行為",
        "ServiceTypes": [
            "KCModule"
        ]
    },
    "X-DocPath": "kcontrol5/khtml-behavior/index.html",
    "X-KDE-Keywords": "konqueror,kfm,browser,html,web,www,fonts,colours,colors,java,javascript,cursor,links,images,charsets,character sets,encoding",
    "X-KDE-Keywords[bg]": "браузър,уеб,шрифт,цвят,курсор,кодировка,изображение,скрипт,konqueror,kfm,browser,html,web,www,fonts,colours,colors,java,javascript,cursor,links,images,charsets,character sets,encoding",
    "X-KDE-Keywords[bs]": "konqueror,kfm,browser,html,web,www,fonts,colours,colors,java,javascript,cursor,links,images,charsets,character sets,encoding",
    "X-KDE-Keywords[ca@valencia]": "konqueror,kfm,navegador,html,web,www,tipus de lletra,colors,colors,java,javascript,cursor,enllaços,imatges,joc de caràcters,joc de caràcters,codificació",
    "X-KDE-Keywords[ca]": "konqueror,kfm,navegador,html,web,www,tipus de lletra,colors,colors,java,javascript,cursor,enllaços,imatges,joc de caràcters,joc de caràcters,codificació",
    "X-KDE-Keywords[da]": "konqueror,kfm,browser,html,web,www,fonts,skrifttyper,farver,java,javascript,cursor,markør,links,billeder,tegnsæt,indkodning",
    "X-KDE-Keywords[de]": "Schriften,Farben,Links,Verknüpfungen,Bilder,Zeichensatz,Zeichensätze",
    "X-KDE-Keywords[el]": "konqueror,kfm,περιηγητής,html,ιστός,www,γραμματοσειρές,χρώματα,χρώματα,java,javascript,δρομέας,σύνδεσμοι,εικόνες,charsets,σύνολα χαρακτήρων,κωδικοποίηση",
    "X-KDE-Keywords[en_GB]": "konqueror,kfm,browser,html,web,www,fonts,colours,colors,java,javascript,cursor,links,images,charsets,character sets,encoding",
    "X-KDE-Keywords[es]": "konqueror,kfm,navegador,html,web,www,tipos de letra,colores,colores,java,javascript,cursor,enlaces,imágenes,juegos de caracteres,juegos de caracteres,codificación",
    "X-KDE-Keywords[et]": "konqueror,kfm,brauser,html,veeb,www,fondid,värvid,java,javascript,lingid,pildid,kooditabel,kodeering",
    "X-KDE-Keywords[eu]": "konqueror,kfm,arakatzaile,html,web,www,letra-tipoak,koloreak,java,javascript,kurtsorea,estekak,irudiak,karaktere-multzoak,kodeketa,kodetze",
    "X-KDE-Keywords[fi]": "konqueror,kfm,selain,html,web,www,kirjasimet,fontit,värit,java,javascript,osoitin,linkit,kuvat,merkistöt,merkistö,koodaus",
    "X-KDE-Keywords[fr]": "konqueror, kfm, navigateur, html, web, www, polices, couleurs, couleurs, java, javascript, curseur, liens, images, table de caractères, tables de caractères, encodage",
    "X-KDE-Keywords[ga]": "konqueror,kfm,brabhsálaí,html,gréasán,www,clófhoirne,clónna,dathanna,java,javascript,cúrsóir,naisc,nascanna,íomhánna,tacair charachtair,ionchódú",
    "X-KDE-Keywords[gl]": "konqueror,kfm,navegador,html,web,www,fontes,tipos de letra,cores,java,javascript,cursor,ligazóns,imaxes,conxunto de caracteres,codificación,carácter",
    "X-KDE-Keywords[hu]": "konqueror,kfm,böngésző,html,web,www,betűtípusok,színek,színek,java,javascript,kurzor,hivatkozások,képek,karakterkódolások,karakterkódolások,kódolás",
    "X-KDE-Keywords[ia]": "konqueror,kfm,navigator,html,web,www,fonts,colores,colores,java,javascript,cursor,ligamines,images,insimules de character,insimules de character,codification",
    "X-KDE-Keywords[id]": "konqueror,kfm,penelusur,html,web,www,fon,warna,warna,java,javascript,kursor,tautan,gambar,charset,set karakter,penyandian",
    "X-KDE-Keywords[is]": "konqueror,kfm,java,javascript,vafri,vefur,vefurinn,vefsíður,letur,litir,kóðun,stafatafla,bendill,myndir,www,html,stafir",
    "X-KDE-Keywords[it]": "konqueror,kfm,browser,html,web,www,caratteri,colori,java,javascript,cursore,collegamenti,immagini,codifiche,insiemi di caratteri",
    "X-KDE-Keywords[ka]": "konqueror,kfm,browser,html,web,www,fonts,colours,colors,java,javascript,cursor,links,images,charsets,character sets,encoding",
    "X-KDE-Keywords[kk]": "konqueror,kfm,browser,html,web,www,fonts,colours,colors,java,javascript,cursor,links,images,charsets,character sets,encoding",
    "X-KDE-Keywords[km]": "konqueror kfm កម្មវិធី​រុករក html បណ្ដាញ www ពុម្ពអក្សរ ពណ៌ ពណ៌ java javascript ទស្សន៍ទ្រនិច តំណ រូបភាព សំណុំ​តួអក្សរ សំណុំ​តួអក្សរ ការ​អ៊ិនកូដ",
    "X-KDE-Keywords[ko]": "konqueror,kfm,browser,html,web,www,fonts,colours,colors,java,javascript,cursor,links,images,charsets,character sets,encoding,색,색상,자바,자바스크립트,커서,링크,그림,문자셋,인코딩",
    "X-KDE-Keywords[lt]": "konqueror,kfm,naršyklė,html,žiniatinklis,www,šriftai,spalvos,java,javascript,žymeklis,nuorodos,paveikslėliai,ženklų rinkinys,koduotė",
    "X-KDE-Keywords[lv]": "konqueror,kfm,pārlūks,html,web,www,fonti,krāsas,java,javascript,kursors,saites,attēli,rakstzīmju kopas,kodējums",
    "X-KDE-Keywords[nb]": "konqueror,kfm,nettleser,html,vev,www,skrifter,farger,java,javascript,markør, lenker,bilder,tegnsett,tegnkoding",
    "X-KDE-Keywords[nds]": "Konqueror,kfm,Nettkieker,html,Nett,www,Schriften,Schriftoorden,Klören,Java,Javaskript,Blinker,Links,Biller,Tekensetten,Koderen,Tekenkoderen",
    "X-KDE-Keywords[nl]": "konqueror,kfm,browser,html,web,www,lettertypen,tekensets,kleuren,java,javascript,cursor,koppelingen,tekensets,codering",
    "X-KDE-Keywords[nn]": "Konqueror,kfm,nettlesar,HTML,nettet,WWW,skrifttypar,skrifter,fargar,java,javascript,peikar,lenkjer,bilete,teiknsett,teiknkoding",
    "X-KDE-Keywords[pl]": "konqueror,kfm,przeglądarka,html,sieć,www,czcionki,kolory,barwy,java,javascript,kursor,odnośniki,obrazy,zestawy znaków,kodowanie",
    "X-KDE-Keywords[pt]": "konqueror,kfm,navegador,HTML,Web,WWW,cores,Java,Javascript,cursor,ligações,imagens,codificações,codificações de caracteres,codificação",
    "X-KDE-Keywords[pt_BR]": "konqueror,kfm,navegador,html,web,www,fontes,cores,java,javascript,cursor,links,imagens,codificações,codificações de caracteres,codificação",
    "X-KDE-Keywords[ro]": "konqueror,kfm,navigator,html,web,www,fonturi,culori,culori,java,javascript,cursor,legături,imagini,set de caractere,seturi de caractere,codare",
    "X-KDE-Keywords[ru]": "konqueror,kfm,browser,html,web,www,fonts,colours,colors,java,javascript,cursor,links,images,charsets,character sets,encoding,браузер,веб,шрифты,цвета,оттенки,курсор,ссылки,изображения,кодировки,наборы символов,кодирование",
    "X-KDE-Keywords[sk]": "konqueror,kfm,prehliadač,html,web,www,písma,farba,farby,java,javascript,kurzor,odkazy,obrázky,znakové sady,sady znakov,kódovanie",
    "X-KDE-Keywords[sl]": "konqueror,kfm,brskalnik,html,splet,www,pisave,barve,java,javascript,kazalka,povezave,slike,nabori znakov,kodiranje",
    "X-KDE-Keywords[sr@ijekavian]": "konqueror,kfm,browser,html,web,www,fonts,colours,colors,java,javascript,cursor,links,images,charsets,character sets,encoding,К‑освајач,КФМ,прегледач,ХТМЛ,веб,фонт,боје,јава,јаваскрипт,показивач,курсор,везе,слике,кодирање",
    "X-KDE-Keywords[sr@ijekavianlatin]": "konqueror,kfm,browser,html,web,www,fonts,colours,colors,java,javascript,cursor,links,images,charsets,character sets,encoding,K‑osvajač,KFM,pregledač,HTML,veb,font,boje,Java,JavaScript,pokazivač,kursor,veze,slike,kodiranje",
    "X-KDE-Keywords[sr@latin]": "konqueror,kfm,browser,html,web,www,fonts,colours,colors,java,javascript,cursor,links,images,charsets,character sets,encoding,K‑osvajač,KFM,pregledač,HTML,veb,font,boje,Java,JavaScript,pokazivač,kursor,veze,slike,kodiranje",
    "X-KDE-Keywords[sr]": "konqueror,kfm,browser,html,web,www,fonts,colours,colors,java,javascript,cursor,links,images,charsets,character sets,encoding,К‑освајач,КФМ,прегледач,ХТМЛ,веб,фонт,боје,јава,јаваскрипт,показивач,курсор,везе,слике,кодирање",
    "X-KDE-Keywords[sv]": "konqueror,kfm,webbläsare,html,webb,www,teckensnitt,färger,java, javascript,markör,länkar,bilder,teckenuppsättningar,kodning",
    "X-KDE-Keywords[tr]": "konqueror,kfm,browser,html,web,www,yazıtipleri,renkler,renk,java,javascript,imleç,bağlantılar,resimler,karakter seti,karakter kümeleri,kodlama,görseller",
    "X-KDE-Keywords[uk]": "konqueror,kfm,browser,html,web,www,fonts,colours,colors,java,javascript,cursor,links,images,java,javascript,перегляд,переглядач,браузер,мережа,джава,ява,скрипт,шрифти,кольори,курсор,посилання,зображення,символи,набір,кодування,символ,набори",
    "X-KDE-Keywords[wa]": "konqueror,kfm,betchteu,html,waibe,www,fontes,coleurs,java,javascript,cursoe,loyéns,imådjes,ecôdaedje,ecôdaedjes,web",
    "X-KDE-Keywords[x-test]": "xxkonquerorxx,xxkfmxx,xxbrowserxx,xxhtmlxx,xxwebxx,xxwwwxx,xxfontsxx,xxcoloursxx,xxcolorsxx,xxjavaxx,xxjavascriptxx,xxcursorxx,xxlinksxx,xximagesxx,xxcharsetsxx,xxcharacter setsxx,xxencodingxx",
    "X-KDE-Keywords[zh_CN]": "浏览器,网络,字体,颜色,光标,链接,图像,字符,字符集,编码",
    "X-KDE-Keywords[zh_TW]": "konqueror,kfm,browser,html,web,www,fonts,colours,colors,java,javascript,cursor,links,images,charsets,character sets,encoding"
}
